name,description,datatype,rename_api
Filing Id,Unique id number of the filing,number,filing_id
Form Type,Form/Schedule the transaction was reported on,string,form_type
Transaction,Human readable type of transaction,string,tx_form
Election,Election date that triggered committee inclusion in dataset,string,election
Filing Type,Original or Amendment,string,filing_activity_type
Filer Id,Unique identifier for filer. Sometimes referred to as FPPC ID or SOS ID,number,filer_id
Filer Name,Name of the committee filing,string,filer_name
Short Filer Name,Shortened committee name (for presentation),string,filer_name_short
Filing Datetime,Date and Time the filing was received by SFEC,string,filing_datetime
Transaction Id,"Id for transaction. Assigned by filer, only guaranteed to be unique within filing.",string,transaction_id
Transaction Amount,"Dollar value of transaction. Depending on transaction type this could represent an increase or decrease to committee funds. For Loans refer to Loan Amount columns, for Accrued Expenses refer to Expn columns.",money,transaction_amount
Transaction Date,"Date of transaction, not all transactions are required to have the date reported.",date,transaction_date
Transaction Name,"Combined first & last name associated with transaction",string,transaction_name
Transaction First Name,First name associated with transaction,string,transaction_first_name
Transaction Last Name,Last name associated with transaction,string,transaction_last_name
Transaction Description,"Description of transaction, not required for all types",string,transaction_description
Entity Code,"Type of Entity (Individual, Political Party, Small Contributor Committee, Other - e.g. a Business, Org, etc.)",string,entity_code
Transaction Code,Transaction expense code (see CAL Spec or FPPC Form 460 for listing),string,transaction_code
Transaction Employer,Committee-reported Employer of Contributor,string,transaction_employer
Transaction Occupation,Committee-reported occupation of Contributor,string,transaction_occupation
Transaction City,Contributor Address city,string,transaction_city
Transaction State,Contributor Address State,string,transaction_state
Transaction Zip,Contributor Address zip code,string,transaction_zip
Committee Id,"Committee FPPC ID, if transaction involved a committee",string,committee_id
Expn Amount Incurred,Amount of an accrued expense incurred during the reporting period,money,expn_amount_incurred
Expn Amount Paid,Amount of an accrued expense paid during the reporting period,money,expn_amount_paid
Expn Beginning Balance,Balance of an accrued expense at the start of the reporting period,money,expn_beginning_balance
Expn Ending Balance,Outstanding blanace at close of this period,money,expn_ending_balance
Loan Amount 1,Amount of loan received/loaned/guaranteed this period,money,loan_amount_1
Loan Amount 2,Outstanding balance,money,loan_amount_2
Loan Amount 3,Cumulative to Date (Calendar Year Amount),money,loan_amount_3
Loan Amount 4,Outstanding Balance Beginning this Period,money,loan_amount_4
Loan Amount 5,Amount Paid this Period,money,loan_amount_5
Loan Amount 6,Amount Forgiven this Period (B1 only),money,loan_amount_6
Loan Amount 7,Amount of Interest Received this Period,money,loan_amount_7
Loan Amount 8,Original Amount of Loan,money,loan_amount_8
Loan Date 1,Date of Loan,date,loan_date_1
Loan Date 2,Date Loan Due,date,loan_date_2
District Number,District number if applicable,number,district_number
Ballot Jurisdiction,Ballot measure jurisdiction,string,ballot_jurisdiction
Ballot Name,Ballot measure name,string,ballot_name
Ballot Number,Ballot measure number,string,ballot_number
Candidate First Name,Candidate First Name,string,candidate_first_name
Candidate Last Name,Candidate Last Name,string,candidate_last_name
Office Code,Office Sought (Codes in CAL Spec),string,office_code
Office Description,"Office Sought Description (Required if Office_CD is ""OTH"" Code for Other)",string,office_description
Support Oppose Code,Support or Opposition of the Ballot Measure,string,support_oppose_code
Jurisdiction Code,Office Jurisdiction Code (Codes in CAL Spec),string,jurisdiction_code
Jurisdiction Description,Office Jurisdiction Description,string,jurisdiction_description
Intermediary First Name,Agent or Intermediary First Name,string,intermediary_first_name
Intermediary Last Name,Agent or Intermediary Last Name,string,intermediary_last_name
Data Loaded At,Last updated date,string,data_loaded_at
Data As Of,Date of disclosure to agency,string,data_as_of
Update Id,Unique row id,string,update_id