name,description,datatype,rename_api
Form Type,"Which type of FPPC form this filing represents",string,form_type
Filing Id Number,"Filing id number ('stamped' on the filing as it is accepted)",string,filing_id_number
Filer FPPC Id,"Committee FPPC Id (aka Filer Id, SOS Id) at time of filing.  May be 'Pending' or blank if the committee has not yet received their id from the California Secretary of State. Check the complete 'Filers' dataset for an up-to-date listing of Committee Names and FPPC Ids.",string,fppc_id
Filer Name,"Committee name (at time of filing)",string,filer_name
Filing Date,"Date the filing was submitted",date,filing_date
Filing Start Date,"Starting date of the filing period for the filing (if applicable)",date,start_date
Filing End Date,"Ending date of the filing period for the filing (if applicable)",date,end_date
Filing Type,"One of [Original, Amendment, Correction, Attachment Added]",string,filing_type
Filing Version,"Version 1 is original and increments with each amendment",integer,filing_version
Report Number,"Filer defined number for report (496, 497 filings only)",string,report_number
Filing Mechanism,"How the filings was submitted; Electronic or Paper",string,mechanism_type
Has Efile Content,"Whether the filing content is available electronically. An electronically submitted form will have usually have transaction data. A paper filing will only have filing metadata.",boolean,has_efile_content
Rendering URL,"URL of PDF rendering of filing, if available",string,rendering_url
Filer Nid,"Unique identifier for the committee",string,filer_nid
Filing Nid,"Unique identifier for the filing",string,filing_nid
Filing Activity Nid,"Unique identifier for the submition of a filing (original, amendment, correction). This field is the primary key for this dataset.",string,filing_activity_nid
Filing DateTime,"Datestring representing when the filing was submitted. Paper filings are recorded as midnight Pacific time on the filing date.",string,filing_datetime
Publish Sequence,"Netfile publishSequence number",integer,publish_sequence
Current Status,"If this filing is superceded, the filingid that supercedes it; if current, the date of the sync update to this dataset; if this field is blank, there was an error during the sync update",string,current_status
Complete Rendering Nid,"id for unredacted PDF rendering",string,complete_rendering_nid
Redacted Rendering Nid,"id for redacted PDF rendering",string,redacted_rendering_nid
Attachments Nids,"ids for attachment files (496 filings only)",string,attachments_nids
Rejected,"Rejected filings includes those submitted using an incorrect account login or filings which had an error in reporting period. Many rejected filings are subsequently rectified by submitting a revised statement.",boolean,rejected
Sync Status,"Indicator of sync scripts run",integer,sync_status
Data As Of,Date the record was added to source,date,data_as_of
Data Loaded At,Date the record was uploaded to the portal,date,data_loaded_at
Sync Flag,"Flag used for update process indicating the fill-in process has run",boolean,sync_flag