name,description,datatype,rename_api
id,"Unique identifier for the record",string,id
filerId,"Unique ID of the person filing",string,filerId
filingId,"Unique ID of the filing",string,filingId
filerName,"Name of the filer",string,filerName
filingDate,"Date of the filing",date,filingDate
departmentName,"Department name of the filer",string,departmentName
positionName,"Filer's position",string,positionName
offices,"Offices held by the filer",string,offices
periodStart,"Start period of this filing",date,periodStart
periodEnd,"Ending period of this filing",date,periodEnd
comment,"The comment",string,comment
transactionType,"The schedule this comment is attached to",string,transactionType